<?xml version="1.0" encoding="utf-8"?>
<COLLADA xmlns="http://www.collada.org/2005/11/COLLADASchema" version="1.4.1">
  <asset>
    <contributor>
      <author>Blender User</author>
      <authoring_tool>Blender 2.78.0 commit date:2016-09-26, commit time:12:42, hash:4bb1e22</authoring_tool>
    </contributor>
    <created>2016-12-05T15:12:10</created>
    <modified>2016-12-05T15:12:10</modified>
    <unit name="meter" meter="1"/>
    <up_axis>Z_UP</up_axis>
  </asset>
  <library_images/>
  <library_effects>
    <effect id="Metal-effect">
      <profile_COMMON>
        <technique sid="common">
          <phong>
            <emission>
              <color sid="emission">0 0 0 1</color>
            </emission>
            <ambient>
              <color sid="ambient">0 0 0 1</color>
            </ambient>
            <diffuse>
              <color sid="diffuse">0.2739064 0.2739064 0.2739064 1</color>
            </diffuse>
            <specular>
              <color sid="specular">0.5 0.5 0.5 1</color>
            </specular>
            <shininess>
              <float sid="shininess">50</float>
            </shininess>
            <index_of_refraction>
              <float sid="index_of_refraction">1</float>
            </index_of_refraction>
          </phong>
        </technique>
      </profile_COMMON>
    </effect>
  </library_effects>
  <library_materials>
    <material id="Metal-material" name="Metal">
      <instance_effect url="#Metal-effect"/>
    </material>
  </library_materials>
  <library_geometries>
    <geometry id="inspection_target-mesh" name="inspection_target">
      <mesh>
        <source id="inspection_target-mesh-positions">
          <float_array id="inspection_target-mesh-positions-array" count="921">4.410395 -45.02421 -62.34271 4.718833 44.97578 27.82034 0.3850008 -45.02421 -63.44372 -0.3481211 44.97578 26.44303 0.3530791 -45.02422 -26.44615 -0.3800944 44.97578 63.44061 3.392364 44.97577 62.78586 5.401932 -45.02423 -28.22769 6.826084 44.97578 60.70409 8.733983 -45.02422 -31.31135 9.932948 44.97577 56.94841 11.991 -45.02423 -37.46978 12.15516 44.97576 51.6962 13.04512 -45.02423 -45.04664 13.03948 44.97577 45.52877 12.3458 -45.02423 -50.93154 12.458 44.97578 39.55811 10.6889 44.97577 34.4447 10.48238 -45.02423 -55.96189 8.001311 44.97576 30.44887 7.730016 -45.02424 -59.84164 -0.9106562 44.97578 23.7706 0.07108432 -45.02421 -66.30044 -4.60778 -45.02422 -65.23487 -4.950138 44.97578 24.92772 -8.370194 -45.02422 -62.66245 -8.685843 44.97578 27.64545 -11.64542 -45.02421 -58.45603 -11.89872 44.97578 31.99526 -14.00253 -45.02422 -52.76725 -14.15259 44.97578 37.79788 -15.11136 -45.02422 -44.69111 -15.08889 44.97578 46.1416 -13.86408 -45.02423 -36.78092 -13.70968 44.97577 53.72191 -11.65662 -45.02422 -31.57953 -11.41571 44.97577 58.82866 -8.614802 -45.02423 -27.58421 -8.315762 44.97577 62.70433 -4.180013 -45.02425 -24.50661 -4.708131 44.97575 65.18291 -0.06618112 44.97578 66.29733 0.9157603 -45.02423 -23.77374 4.185048 44.97578 24.50353 8.320698 -45.02423 -62.70741 4.713109 -45.02421 -65.18601 8.619724 44.97577 27.58111 4.612657 44.97577 65.23179 4.955071 -45.02423 -24.93083 8.374885 44.97578 62.65955 8.690554 -45.02421 -27.64836 11.65048 44.97578 58.45264 11.9038 -45.02422 -31.99868 14.00753 44.97576 52.76394 14.15757 -45.02423 -37.80117 15.11627 44.97577 44.68751 15.0938 -45.02423 -46.14504 13.869 44.97577 36.77777 13.7146 -45.02423 -53.72507 11.66151 44.97577 31.57634 11.42062 -45.02423 -58.83183 -3.38731 -45.02423 -62.789 -6.821103 -45.02423 -60.7072 -5.397032 44.97578 28.22463 -9.927974 -45.02423 -56.95159 -8.729099 44.97577 31.30831 -12.15023 -45.02423 -51.69931 -11.98607 44.97578 37.46667 -13.03454 -45.02423 -45.53188 -13.04018 44.97577 45.04355 -12.45306 -45.02423 -39.56124 -12.34087 44.97577 50.9284 -10.684 -45.02422 -34.4479 -10.47746 44.97577 55.95875 -7.996451 -45.02422 -30.45205 -7.725176 44.97578 59.83845 -4.713919 -45.02423 -27.82345 -4.405458 44.97577 62.33961 28.00245 46.97578 -125.0016 30.00246 74.97579 -125.0016 30.00246 44.97578 -125.0016 28.00245 72.97579 -125.0016 -29.99751 74.97577 -125.0016 -27.99751 72.97577 -125.0016 -27.99751 46.97576 -125.0016 -29.99751 44.97576 -125.0016 30.00245 74.97578 124.9984 28.00245 72.97577 124.9984 30.00245 44.97578 124.9984 28.00245 46.97578 124.9984 -29.99752 74.97576 124.9984 -27.99752 72.97576 124.9984 -27.99752 46.97575 124.9984 -29.99752 44.97575 124.9984 30.00246 -75.02422 -125.0016 28.00245 -47.02421 -125.0016 30.00246 -45.02421 -125.0016 28.00245 -73.02422 -125.0016 -27.99751 -47.02424 -125.0016 -29.99751 -45.02423 -125.0016 -27.99751 -73.02424 -125.0016 -29.99751 -75.02423 -125.0016 30.00245 -75.02422 124.9984 30.00245 -45.02422 124.9984 28.00244 -73.02423 124.9984 28.00245 -47.02421 124.9984 -29.99752 -45.02424 124.9984 -27.99752 -47.02425 124.9984 -27.99752 -73.02426 124.9984 -29.99752 -75.02424 124.9984 -11.49623 -44.92423 114.9933 -7.740028 45.07576 116.784 17.91486 45.07576 109.5715 18.86767 -44.92423 108.315 -6.401487 -44.92424 117.1246 -23.031 -44.92422 95.19538 -22.98669 45.07577 93.42617 21.13752 45.07577 104.179 22.26558 -44.92423 101.2362 -22.57037 45.07577 99.93144 -1.765806 -44.92423 117.9648 -22.39673 -44.92424 100.457 -0.784592 45.07577 118.0397 22.54755 45.07576 99.68371 -20.11306 -44.92423 106.3089 23.04374 -44.92424 94.21114 23.04532 45.07577 94.99845 5.24641 45.07577 117.4599 3.701184 -44.92423 117.7654 -20.35807 45.07577 105.7701 -17.37426 45.07576 110.15 12.01546 45.07577 114.753 9.70646 -44.92423 115.9233 -16.29958 -44.92424 111.3007 14.54438 -44.92423 112.8732 -13.44155 45.07577 113.7024 -19.22504 45.07576 78.91822 -17.30088 -44.92424 76.86378 9.771891 45.07577 71.94912 9.381345 -44.92424 71.71072 -20.92614 -44.92422 81.26139 24.64011 45.07576 90.09795 24.95882 -44.92424 92.54026 4.887834 45.07577 70.43682 -22.35848 45.07577 83.74228 3.066596 -44.92422 70.15243 -23.44638 -44.92423 86.17308 -0.2026537 45.07578 69.96505 23.37828 -44.92423 85.95172 -24.12484 45.07578 88.32109 -3.272576 -44.92422 70.12152 -24.78995 -44.92424 91.52725 21.99774 45.07577 82.97846 -6.491735 45.07577 70.76186 -25.04079 45.07577 93.94613 -24.99077 -44.92423 96.43067 19.90875 -44.92423 79.72341 -11.10797 -44.92422 72.46877 19.24518 45.07576 79.01943 -13.73953 45.07578 73.98799 15.27729 45.07577 75.09199 15.24752 -44.92424 75.13065 -7.849838 -44.92424 118.7693 -23.78475 -44.92423 103.0729 -12.51913 -44.92422 116.686 -20.3632 -44.92422 109.5921 -16.65732 -44.92423 113.6844 16.27812 -44.92423 78.72281 12.46551 -44.92422 75.58999 19.41094 -44.92423 82.53544 7.530285 -44.92422 73.22896 22.05377 -44.92424 88.23417 1.342514 -44.92423 71.93177 24.81512 -44.92424 98.26478 -5.456179 -44.92423 72.59928 23.77336 -44.92422 102.8506 -11.30791 -44.92423 74.88293 20.88932 -44.92423 108.9543 -16.29957 -44.92424 78.6962 15.72329 -44.92424 114.5209 -19.99237 -44.92423 83.49964 10.89058 -44.92424 117.5409 -22.41858 -44.92424 89.53439 5.467679 -44.92423 119.4608 -1.638655 -44.92422 120.0363 18.68842 45.07576 111.6582 -11.07364 45.07577 117.4587 -6.475046 45.07577 119.1724 22.11858 45.07577 106.8196 -24.41957 45.07578 100.693 -0.8182861 45.07578 120.0621 24.8042 45.07576 99.09316 -21.61497 45.07577 107.7643 6.496688 45.07577 119.235 -16.54152 45.07577 113.8633 13.74437 45.07577 116.009 9.903944 45.07577 74.17825 -17.77028 45.07576 80.23373 4.141314 45.07577 72.30738 -21.68847 45.07577 87.03784 22.40172 45.07576 89.54004 -1.372838 45.07577 72.00525 20.54421 45.07575 84.57655 -7.51122 45.07576 73.1487 17.53292 45.07576 80.00848 -13.11969 45.07577 76.06731 13.90992 45.07577 76.6579 -11.49624 -44.92422 -75.00669 -7.74003 45.07577 -73.21604 18.3425 45.07577 -81.09345 18.86768 -44.92422 -81.68498 -6.401517 -44.92423 -72.87539 20.92709 45.07577 -85.29712 -22.76446 -44.92423 -91.30261 -22.99074 45.07577 -93.62644 22.26559 -44.92422 -88.76377 -1.765802 -44.92422 -72.03524 -0.7845882 45.07578 -71.96028 -21.84725 45.07578 -87.48774 22.8791 45.07577 -91.85694 -20.52586 -44.92422 -84.36463 23.04375 -44.92423 -95.78886 3.775455 45.07578 -72.30076 3.701188 -44.92422 -72.23461 9.213517 45.07577 -73.79515 -18.06944 45.07577 -80.60457 9.706464 -44.92422 -74.07675 -16.29957 -44.92423 -78.69931 14.54435 -44.92422 -77.1268 15.15409 45.07577 -77.62489 -13.44154 45.07577 -76.2976 -16.54161 45.07577 -113.8663 -17.30095 -44.92423 -113.1362 9.771661 45.07577 -118.051 10.89075 -44.92422 -117.5439 -20.69822 45.07578 -109.0797 -20.92612 -44.92421 -108.7387 5.69178 -44.92422 -119.4017 24.64011 45.07577 -99.90206 24.95882 -44.92423 -97.45974 3.523824 45.07578 -119.8588 -23.69015 45.07578 -103.3047 -23.44637 -44.92422 -103.8269 0.2075538 -44.92421 -120.035 23.37829 -44.92422 -104.0483 -24.78994 -44.92423 -98.47279 -2.305319 45.07579 -119.9071 21.99775 45.07578 -107.0215 -6.499148 -44.92422 -119.2659 -25.11779 45.07577 -95.00157 -24.90291 -44.92422 -91.72277 -7.050964 45.07578 -119.054 19.90877 -44.92422 -110.2766 18.6884 45.07577 -111.6614 -11.79071 45.07577 -117.0647 -12.6922 -44.92421 -116.5784 15.24751 -44.92423 -114.8694 14.59623 45.07578 -115.3671 -12.01794 -44.92421 -73.00651 -22.81889 -44.92422 -84.66132 -19.98271 -44.92422 -79.92492 -16.65732 -44.92422 -76.31561 16.27812 -44.92422 -111.2772 12.46535 -44.92422 -114.4101 19.41094 -44.92422 -107.4646 6.767042 -44.92422 -117.0528 22.05379 -44.92423 -101.7658 1.573709 -44.92422 -117.9746 24.81513 -44.92424 -91.73526 -3.13548 -44.92422 -117.8297 23.77337 -44.92421 -87.1494 -8.666626 -44.92424 -116.3759 20.88932 -44.92422 -81.04566 -12.73424 -44.92422 -114.1677 -16.29958 -44.92423 -111.3038 15.72331 -44.92423 -75.47908 -19.99236 -44.92422 -106.5004 10.8906 -44.92423 -72.45912 -21.93623 -44.92422 -101.9648 5.467666 -44.92422 -70.53926 -22.93139 -44.92422 -97.35914 0.002451539 -44.92421 -69.97486 -5.691891 -44.92422 -70.57952 18.6884 45.07577 -78.34174 -8.822876 45.07577 -71.55272 22.11858 45.07578 -83.18044 -1.640495 45.07579 -69.93508 -24.12483 45.07579 -88.32418 24.17629 45.07579 -88.52376 -22.35849 45.07578 -83.7454 6.496675 45.07577 -70.76496 24.96883 45.07577 -93.15906 -18.86231 45.07577 -78.45749 13.74439 45.07578 -73.99105 -13.91038 45.07578 -74.17912 9.904084 45.07577 -115.8217 -18.24043 45.07578 -109.1158 4.141467 45.07578 -117.6926 -21.04556 45.07578 -104.3589 22.67189 45.07576 -99.4699 -22.68859 45.07577 -99.14052 -1.372561 45.07577 -117.9948 20.54421 45.07577 -105.4235 -7.511331 45.07577 -116.8513 17.53292 45.07577 -109.9915 -13.75593 45.07578 -113.5143 13.91005 45.07577 -113.342</float_array>
          <technique_common>
            <accessor source="#inspection_target-mesh-positions-array" count="307" stride="3">
              <param name="X" type="float"/>
              <param name="Y" type="float"/>
              <param name="Z" type="float"/>
            </accessor>
          </technique_common>
        </source>
        <source id="inspection_target-mesh-normals">
          <float_array id="inspection_target-mesh-normals-array" count="1788">-0.1897992 -0.69459 0.6939171 -0.1886699 -0.6947129 0.694102 -0.1219719 0.7008877 -0.7027655 -0.2417002 0.6872994 -0.6849822 -0.394398 0.6490479 -0.6505284 -0.5470409 0.5927429 -0.5911026 -0.650358 0.536268 -0.5380067 -0.7999503 0.4255472 -0.4230712 -0.8586742 0.3615065 -0.3633068 -0.9810802 0.1373023 -0.1364912 -0.9799869 0.1410009 -0.1405156 -0.986239 -0.1166067 0.1171988 -0.9905829 -0.09715175 0.09647309 -0.8980866 -0.3112844 0.3107131 -0.8859682 -0.3276426 0.3281933 -0.7243745 -0.4877535 0.4872145 -0.706132 -0.5004326 0.5009441 -0.4925791 -0.6156226 0.6151217 -0.4703305 -0.6237743 0.6242554 -0.1591221 0.6975051 -0.6986894 -0.1984524 0.6932911 -0.6927945 -0.4354 0.6363108 -0.6368167 -0.4572859 0.6291173 -0.6285706 -0.67249 0.5230505 -0.5236178 -0.6913103 0.511233 -0.5106182 -0.8629826 0.3569364 -0.3575716 -0.8762688 0.3410376 -0.3403624 -0.9817706 0.1340038 -0.1347939 -0.9875004 0.1120859 -0.1108139 -0.9758494 -0.1550526 0.1538724 -0.9685688 -0.175551 0.1762281 -0.8572452 -0.3643763 0.3638139 -0.8442531 -0.3787001 0.3792403 -0.6803412 -0.5184993 0.5179714 -0.6625121 -0.5294082 0.5299102 -0.4403701 -0.6351375 0.6345665 -0.4368727 -0.636244 0.635874 -0.1010528 -0.7043153 0.702658 -0.1675278 -0.696401 0.6978253 0.4368792 0.6362417 -0.635872 0.4403775 0.635135 -0.6345639 0.16753 0.6964008 -0.697825 0.1010648 0.7043144 -0.7026572 0.1984549 -0.6932908 0.692794 0.1591146 -0.6975059 0.6986902 0.4572842 -0.6291178 0.6285715 0.4353957 -0.6363124 0.6368181 0.6913103 -0.511233 0.5106182 0.6724904 -0.5230502 0.5236175 0.876272 -0.3410339 0.3403577 0.8629852 -0.3569331 0.3575688 0.987503 -0.1120745 0.1108033 0.9817749 -0.1339882 0.1347785 0.9758476 0.1550583 -0.1538786 0.968567 0.1755561 -0.1762331 0.8572444 0.3643772 -0.3638154 0.8442523 0.3787011 -0.379241 0.6625069 0.5294114 -0.5299136 0.6803347 0.5185037 -0.5179757 0.121975 -0.7008875 0.7027652 0.3943962 -0.6490485 0.6505289 0.2417069 -0.6872982 0.684981 0.650351 -0.5362721 0.538011 0.547041 -0.5927429 0.5911024 0.8586739 -0.3615067 0.3633073 0.7999507 -0.425547 0.4230706 0.9799869 -0.1410003 0.140515 0.9810804 -0.1373013 0.1364903 0.990583 0.09715151 -0.09647274 0.9862393 0.1166056 -0.1171979 0.8980877 0.3112829 -0.3107113 0.8859685 0.3276421 -0.3281928 0.7243809 0.4877489 -0.4872097 0.706138 0.5004283 -0.5009398 0.4925816 0.6156215 -0.6151208 0.4703325 0.6237736 -0.6242547 0.1886675 0.6947133 -0.6941024 0.1897956 0.6945906 -0.6939175 1.51762e-6 -1 -8.46652e-6 1.27742e-6 -1 -2.59092e-6 1.65134e-6 -1 -2.76447e-6 0 -1 0 -1.94999e-6 -1 1.2647e-6 -1.28328e-6 -1 1.07242e-6 6.58543e-7 -1 -4.72734e-6 2.5142e-6 -1 -4.43016e-6 1.65935e-6 -1 2.63511e-6 5.66459e-6 -1 0 5.4216e-6 -1 4.12792e-6 -3.56439e-6 -1 0 9.43653e-7 -1 0 -1.58706e-6 -1 1.26199e-6 -9.62461e-7 -1 0 1.66276e-6 -1 1.76581e-6 3.20726e-7 -1 3.87127e-6 -3.17403e-6 -1 2.40686e-7 -2.55262e-6 -1 -5.33254e-6 1.9212e-6 -1 -6.6979e-7 -3.31116e-6 -1 -1.26084e-6 2.48171e-6 -1 0 2.84627e-6 -1 -6.61169e-7 2.5221e-6 -1 -5.55778e-6 5.05527e-6 -1 -2.31095e-6 3.96964e-6 -1 -2.7314e-6 2.60946e-6 -1 0 -5.65667e-6 -1 -4.58349e-6 0 -1 -1.71762e-6 1.26955e-7 -1 -2.7897e-6 -5.66741e-6 -1 -2.74337e-6 -3.25337e-6 -1 -1.34541e-6 6.12665e-7 -1 -2.60759e-6 -2.91689e-7 -1 0 -4.8805e-6 -1 -2.36204e-6 -4.35842e-6 -1 -3.47088e-6 3.53611e-6 -1 -7.59566e-6 -1.76713e-6 -1 0 -4.06773e-6 -1 -2.77237e-6 -2.8385e-6 1 -2.69096e-6 -1.26994e-7 1 4.88214e-6 0 1 0 0 1 -4.29421e-7 4.31565e-6 1 1.0622e-6 4.97967e-7 1 2.07177e-6 -2.99122e-6 1 2.73137e-6 -6.1494e-7 1 4.51194e-6 -3.53379e-7 1 5.54475e-6 -1.56372e-6 1 0 -5.05015e-7 1 0 -1.24202e-6 1 -2.36186e-6 -2.83208e-6 1 -5.48683e-6 2.78767e-6 1 0 1.71261e-6 1 -2.68289e-6 -5.39358e-6 1 2.36371e-6 -3.62461e-6 1 4.6961e-6 8.81347e-7 1 0 2.4154e-6 1 1.37956e-7 -2.73438e-6 1 -4.58356e-6 6.73139e-7 1 -1.26087e-6 -2.11719e-7 1 1.44434e-6 3.09209e-6 1 2.63533e-6 -1.40615e-7 1 -2.51511e-6 1.49786e-6 1 5.36194e-7 -1.24767e-6 1 -1.89893e-6 -9.60592e-7 1 -2.67914e-6 1.78319e-6 1 2.39459e-6 6.08413e-7 1 2.25156e-6 2.21198e-6 1 -1.21572e-6 -1.8873e-6 1 -1.31594e-6 3.50102e-6 1 -1.18984e-6 4.12938e-6 1 2.76456e-6 3.80355e-6 1 -2.04366e-6 5.31996e-7 1 0 -2.72304e-6 1 2.72629e-6 -5.04587e-7 1 1.8903e-6 1.13286e-6 1 0 0 0 -1 6.45562e-6 0 -1 -9.38999e-6 0 -1 2.0345e-6 0 -1 0 0 1 -9.39e-6 0 1 2.53917e-7 0 1 -2.72477e-7 0 1 9.39e-6 0 1 3.8147e-7 -1 0 3.8147e-7 -1 0 -1 1.30208e-7 0 -1 1.30208e-7 0 -2.54313e-7 1 0 -3.8147e-7 1 0 1 0 0 1 0 0 -4.08718e-7 1 0 -4.08718e-7 1 0 1 0 0 1 0 0 2.72479e-7 -1 0 2.72479e-7 -1 0 -1 0 0 -1 -1.5024e-7 0 -1.52588e-6 0 -1 9.38998e-6 0 -1 0 0 -1 2.72481e-7 0 -1 -6.45564e-6 0 -1 -1.35605e-7 0 -1 -9.39e-6 0 1 0 0 1 -2.72476e-7 0 1 0 0 1 9.39002e-6 0 1 3.8147e-7 -1 0 1.27157e-7 -1 0 -1 0 0 -1 -1.30208e-7 0 -2.54313e-7 1 0 -5.44957e-7 1 0 -4.08718e-7 1 0 1 0 0 1 -1.5024e-7 0 5.44957e-7 -1 0 5.44957e-7 -1 0 -1 1.5024e-7 0 -1 1.5024e-7 0 -0.8583933 -0.001925826 -0.5129888 -0.9015145 0.002849817 -0.4327399 0.9979571 -0.001746773 -0.06386548 0.1783298 -0.001072227 -0.9839703 0.9928121 0.00121653 -0.1196778 0.1776671 -0.001117348 -0.98409 -0.9541603 -0.002173483 -0.2992883 -0.03644382 0.001229584 -0.9993351 0.9315755 -3.25794e-4 -0.3635478 -0.9939206 9.8064e-4 -0.1100951 -0.9944029 0.001292943 -0.1056472 -0.0957033 -0.001735985 -0.9954085 0.9351228 4.2458e-4 -0.3543236 -0.2932628 0.001789629 -0.9560302 0.8264464 -0.001120567 -0.5630143 -0.3712982 -0.002547144 -0.9285102 0.7946482 0.001727104 -0.6070678 -0.5333109 0.002683222 -0.8459152 0.6703131 -0.001483678 -0.7420769 0.6094749 0.001801908 -0.7928034 -0.6599103 -0.002849578 -0.751339 -0.7255492 0.001926064 -0.6881677 0.4754812 -0.00234121 -0.8797229 0.3859199 0.002247869 -0.9225296 -0.7716102 -0.001976549 -0.6360925 0.9998291 0.003045618 -0.01823872 0.2957896 0.001246809 -0.9552524 -0.8386169 0.00166887 -0.5447192 0.239582 -0.001780331 -0.9708745 -0.889712 -0.001575529 -0.4565197 0.09227848 0.001278936 -0.9957325 0.9724072 -0.002886772 -0.2332726 -0.9329842 0.001556754 -0.3599141 0.004876494 -0.001904785 -0.9999863 -0.9699265 -0.001502752 -0.2433938 0.9375082 0.002885639 -0.3479515 -0.1256921 0.002562642 -0.9920661 -0.9869993 0.001568615 -0.1607174 -0.9991611 -0.001684963 -0.04091989 0.873596 -0.002676427 -0.4866446 -0.2869681 -0.003448784 -0.957934 0.8210552 0.001588463 -0.5708468 -0.4066502 0.003531098 -0.9135772 0.7018569 -5.38052e-4 -0.7123178 0.7034749 -3.72547e-4 -0.7107201 -0.5787479 -0.003156483 -0.8155004 0.5036497 -5.37631e-4 -0.8639079 -0.668458 0.002686142 -0.743745 0.4957713 1.49101e-4 -0.8684532 -1.6779e-7 -1 0 -4.94982e-6 -1 3.04121e-6 0 -1 2.37225e-6 -2.12771e-6 -1 6.81531e-6 -1.49399e-6 -1 0 -3.20218e-6 -1 0 8.23106e-7 -1 2.54089e-6 -3.91496e-6 -1 2.96352e-6 -3.76013e-6 -1 2.18673e-6 1.00181e-6 -1 0 -2.91866e-6 -1 9.99848e-6 -8.34332e-7 -1 -2.37362e-6 -3.79602e-6 -1 7.71733e-6 3.18493e-7 -1 0 -1.60654e-6 -1 1.81102e-5 -2.07124e-6 -1 -8.76774e-6 0 -1 -2.47426e-6 -2.22696e-6 -1 0 0 -1 -5.3857e-6 -2.03652e-6 -1 8.00447e-7 0 -1 -7.93285e-6 -3.70069e-6 -1 0 1.80662e-6 -1 7.10017e-6 -1.21845e-6 -1 -3.20366e-6 -1.27449e-6 -1 -6.69713e-6 5.92885e-6 -1 3.30299e-6 1.63825e-6 -1 4.62861e-7 -4.19525e-7 -1 1.35543e-6 5.39153e-7 -1 0 1.79388e-6 -1 0 -1.39133e-6 -1 0 -3.16402e-6 -1 1.38134e-6 -5.65045e-6 -1 -4.7868e-6 -1.00585e-6 -1 -6.59554e-7 -1.01112e-6 -1 -5.357e-6 -2.15666e-6 -1 -5.22187e-6 1.82759e-7 -1 0 -1.22171e-6 -1 -2.07216e-6 -1.00442e-6 -1 0 -7.58762e-7 -1 -1.52296e-6 2.49172e-6 -1 2.50065e-6 9.64234e-7 -1 5.37736e-6 -2.14816e-6 -1 7.00781e-6 5.00288e-6 -1 1.62995e-6 1.91926e-6 -1 -3.09435e-6 -5.17799e-7 -1 9.64104e-6 -2.85404e-6 -1 0 2.60322e-6 -1 0 -5.47176e-7 -1 -2.66153e-6 -0.4074561 -0.001295626 0.9132239 -0.3491966 0.001137971 0.9370487 0.8158019 0.002575099 0.5783257 -0.9957857 0.001977622 0.09168887 -0.1998673 -0.001334667 0.979822 -0.9839109 -0.002215802 0.178646 -0.1553841 0.001132786 0.9878535 0.9041469 -0.002215743 0.4272161 0.9445626 0.0028885 0.3283191 0.08072531 -0.001021921 0.9967359 0.9751528 -0.001920521 0.2215252 -0.9295543 0.003192543 0.3686715 0.112354 0.001207292 0.9936675 0.9996851 -1.09548e-4 0.02509355 -0.8854506 -0.002877533 0.4647249 0.3337318 -0.001451611 0.942667 -0.7412374 -3.80731e-4 0.671243 -0.7687786 0.0022946 0.6395109 0.4066497 0.002656042 0.9135804 0.5299342 -0.002368748 0.8480356 -0.5871491 -8.53835e-4 0.8094784 -0.5494078 0.001650929 0.8355528 0.7329859 -0.002511858 0.6802393 0.6606225 0.002113759 0.7507153 -0.4315608 0.001867115 0.902082 0.7927933 0.002542912 0.6094853 -0.308788 -0.001888096 0.9511291 0.8665807 -0.003287196 0.4990263 -0.2051787 0.002295911 0.9787219 0.9278194 0.002820491 0.3730192 -0.9931199 -0.001006841 0.1170979 -0.9865583 0.001443147 0.1634032 -0.05470782 -0.002465844 0.9984995 0.9799666 -0.002425611 0.1991474 -0.9365631 -0.001464724 0.3504959 0.9941981 0.001624763 0.1075534 0.0977109 0.002135396 0.9952126 -0.9071898 0.001881778 0.4207177 0.1831286 -0.001819908 0.9830874 -0.8349135 -0.001968801 0.5503777 0.3635473 0.0026142 0.9315721 -0.772624 0.001702964 0.6348617 0.4616241 -0.002380728 0.8870725 -0.6789668 -0.001021444 0.7341682 -0.6348626 0.001021206 0.7726245 0.6070604 0.001763105 0.7946539 0.6672716 -0.001820087 0.7448124 -0.5263196 -0.001642286 0.8502852 1.77511e-6 1 3.46184e-6 3.92846e-6 1 -1.00307e-6 2.02968e-6 1 0 -1.19157e-6 1 2.53777e-6 1.32818e-6 1 1.33199e-6 -1.26912e-6 1 0 2.72017e-6 1 0 1.06287e-6 1 1.43285e-6 0 1 2.23196e-6 -1.19128e-6 1 -3.21193e-6 -9.78838e-7 1 0 -5.55417e-6 1 5.3296e-6 -7.17154e-7 1 -4.0215e-7 -8.63485e-6 1 2.9969e-6 -2.94331e-7 1 1.31887e-6 6.74953e-7 1 -2.4223e-6 6.95154e-7 1 2.22975e-6 1.44531e-6 1 0 3.58928e-7 1 -1.60837e-6 -9.68694e-7 1 7.23258e-6 4.53004e-6 1 0 0 1 2.56481e-6 -1.08127e-6 1 4.08225e-6 2.95173e-7 1 1.69723e-6 -2.32545e-6 1 -3.27736e-6 -6.35787e-7 1 -5.20011e-7 3.28509e-6 1 4.35644e-6 -2.22056e-6 1 -2.21142e-6 2.83063e-6 1 1.69908e-6 -1.46048e-6 1 2.09967e-6 1.29959e-6 1 2.49071e-6 -3.05096e-6 1 0 1.16357e-6 1 0 5.85425e-7 1 0 -3.00486e-7 1 0 1.43909e-6 1 -1.31003e-6 -3.26359e-7 1 0 1.78067e-6 1 7.92638e-6 2.82857e-6 1 -1.71659e-6 3.50681e-6 1 1.09788e-6 -1.39982e-6 1 2.75475e-6 -2.05384e-7 1 5.33943e-6 1.44888e-6 1 -5.34448e-6 -1.82751e-6 1 1.12371e-6 3.30207e-6 1 -2.65129e-6 -8.94025e-7 1 5.07821e-7 -1.80264e-6 1 -1.06423e-5 -0.851864 -0.001528441 -0.5237609 0.9996189 0.001801848 -0.02755051 -0.9015139 0.003260791 -0.432738 0.1783263 -0.001072049 -0.9839708 0.1776729 -0.001117348 -0.984089 0.9830871 -0.002256572 -0.1831254 -0.9584595 -0.003268599 -0.28521 -0.03644579 0.001229584 -0.999335 0.9516818 0.003317058 -0.3070681 -0.9939166 0.002991437 -0.1100944 -0.07445818 -6.71567e-4 -0.997224 -0.2649792 -4.90116e-4 -0.964254 -0.2932631 0.001385033 -0.9560309 0.8766353 -0.003825247 -0.4811403 0.801536 0.003104269 -0.5979387 -0.5333112 -2.74267e-4 -0.8459191 -0.5418379 -9.80616e-4 -0.8404825 0.6812665 -0.002099454 -0.7320325 0.6094768 0.001801908 -0.7928019 -0.7255515 0.001106977 -0.688167 0.4754754 -0.00234121 -0.8797259 -0.7362133 1.51933e-4 -0.6767495 0.385926 0.002247869 -0.9225271 -0.7716128 -4.56704e-4 -0.6360924 -0.755047 0.001050829 -0.6556699 0.3364961 -0.001121342 -0.9416843 0.9988114 0.002215743 -0.04869222 0.2779481 0.00181663 -0.9605944 -0.8897131 2.39208e-4 -0.4565202 -0.8879129 5.05112e-4 -0.4600115 0.1147021 -0.002282083 -0.9933974 0.9724071 -0.002886772 -0.233273 -0.9699267 -0.001214742 -0.243394 0.008286893 0.001652061 -0.9999644 0.9375076 0.002885639 -0.3479526 -0.1139242 -0.001769244 -0.993488 -0.9855338 0.002945601 -0.1694531 -0.9998555 -0.002996861 -0.01673245 -0.1769206 0.001232028 -0.9842244 0.8735977 -0.002676427 -0.4866415 0.8141313 0.00210464 -0.5806771 -0.3980938 -9.69164e-4 -0.9173443 -0.3870128 -2.02408e-4 -0.9220743 0.7018544 -0.001443386 -0.712319 0.6712444 7.57769e-4 -0.7412358 -0.5584465 0.001111507 -0.8295399 -0.5984026 -0.001451432 -0.8011943 0.5231701 -9.27618e-4 -0.8522279 0.4861355 0.001121222 -0.8738828 -2.85378e-6 -1 5.36377e-6 -2.05431e-6 -1 6.23887e-6 -1.49399e-6 -1 2.38964e-6 -1.07967e-6 -1 0 8.23111e-7 -1 -2.54091e-6 -2.00084e-6 -1 0 -3.76003e-6 -1 4.37332e-6 1.00181e-6 -1 0 -3.42731e-6 -1 0 -8.34334e-7 -1 0 -1.47205e-6 -1 2.22817e-6 3.1851e-7 -1 -2.24722e-6 -1.38761e-6 -1 5.97537e-6 6.25872e-7 -1 -2.47427e-6 9.71472e-7 -1 2.0422e-6 -1.74042e-6 -1 0 -1.5652e-6 -1 -5.8495e-6 -2.63097e-6 -1 0 -1.67489e-7 -1 -4.62365e-6 0 -1 -4.99518e-6 -4.42738e-6 -1 0 1.80673e-6 -1 7.10018e-6 4.16394e-7 -1 -9.5116e-6 -5.15911e-6 -1 -1.01112e-5 6.37321e-6 -1 1.101e-6 0 -1 -9.2572e-7 -5.44222e-6 -1 -6.28384e-6 -2.37869e-7 -1 -4.15276e-6 7.43538e-7 -1 -3.24629e-6 1.67548e-7 -1 2.09651e-6 -1.39132e-6 -1 -2.44188e-6 -2.53116e-6 -1 1.38137e-6 -4.21343e-6 -1 -2.39341e-6 -1.00585e-6 -1 -6.59563e-7 -1.01112e-6 -1 -5.357e-6 -1.15947e-6 -1 -4.47588e-6 6.78526e-7 -1 0 -1.22169e-6 -1 0 -1.00441e-6 -1 0 -8.06467e-7 -1 0 3.93955e-6 -1 -3.3324e-7 8.73e-7 -1 5.25413e-6 -2.10035e-6 -1 0 3.72898e-6 -1 0 -1.54472e-6 -1 4.44211e-7 0 -1 7.1548e-6 0 -1 3.03753e-6 -1.89367e-6 -1 -1.07268e-6 0 -1 1.00091e-6 -2.83313e-6 -1 2.70014e-6 -0.3581947 -0.002365171 0.933644 0.8158009 0.002575159 0.5783272 -0.2197191 0.002905309 0.9755589 -0.9891192 0.002996802 0.147086 0.9041479 -0.002215743 0.4272141 -0.1055902 -0.002367138 0.9944069 0.9331938 0.00131011 0.3593711 -0.9591007 -0.00239706 0.2830553 0.1027253 0.001435458 0.9947087 0.9751546 -9.82744e-4 0.2215237 -0.9329848 0.001109898 0.3599141 0.1014576 0.001334786 0.994839 0.9856952 9.8288e-4 0.168535 0.9996843 -0.001310288 0.02509325 -0.8579441 -8.39354e-4 0.5137424 -0.8341619 0.001392006 0.5515181 0.3337308 -0.001451671 0.9426674 -0.7354397 -0.001892507 0.6775876 0.4066506 0.002655982 0.9135799 0.5299375 -0.002368748 0.8480335 -0.5806851 -0.001602888 0.8141268 -0.6537684 0.001991033 0.7566922 0.7329856 -0.002511918 0.6802395 0.6606222 0.002113759 0.7507155 -0.4587225 0.001931607 0.8885775 -0.4207147 0.002255797 0.9071902 0.7927944 0.002279341 0.609485 -0.3087891 -0.002246439 0.9511279 0.8613835 -0.002006292 0.5079513 -0.9996253 -0.003017246 0.02720713 0.9191416 0.001382648 0.3939249 -0.9865561 0.002607047 0.1634027 -0.1747746 0.001901149 0.9846068 0.9538368 -0.001450598 0.3003221 0.03075045 0.001230418 0.9995264 -0.05471593 -0.001567661 0.9985008 0.9774421 0.001543402 0.2111985 -0.9416692 -0.002117753 0.3365334 -0.9071894 0.001881718 0.4207185 0.9985007 -0.001610696 0.05471515 0.183125 -0.001784265 0.9830881 0.2542074 0.00184524 0.9671481 -0.8349139 -0.00196886 0.5503771 -0.7726269 0.001702904 0.6348582 0.4713014 -0.001391351 0.8819712 0.4771139 -9.63503e-4 0.8788409 -0.6789677 -0.001021444 0.7341675 -0.6348598 0.001021385 0.7726268 0.6262338 0.001449584 0.7796341 -0.5263307 -0.001642346 0.8502784 0.7002276 -0.002255618 0.7139163 3.18976e-6 1 0 1.44734e-6 1 0 1.46685e-6 1 -2.82083e-7 1.61705e-6 1 -8.6419e-7 3.76076e-7 1 0 -1.84402e-6 1 1.7143e-6 -6.34065e-7 1 -4.88419e-6 4.47449e-7 1 2.74556e-6 -1.04939e-6 1 4.35478e-6 -2.79587e-6 1 -2.10227e-6 -1.92772e-6 1 3.10957e-6 -4.56485e-6 1 2.6648e-6 -1.63541e-6 1 2.01742e-6 -5.14661e-6 1 2.53175e-6 -3.36665e-6 1 2.76891e-6 6.74986e-7 1 -2.42229e-6 7.75571e-7 1 3.68647e-6 1.24777e-6 1 3.436e-6 -8.00824e-7 1 5.19105e-6 -3.96264e-6 1 -5.06147e-7 3.42116e-7 1 0 -8.98429e-7 1 9.27503e-6 -2.86965e-6 1 -3.52618e-6 0 1 -2.93533e-7 -7.48575e-6 1 -3.04856e-6 -5.30825e-6 1 -7.11561e-7 7.11287e-7 1 0 9.71753e-7 1 0 -2.30594e-6 1 -5.76788e-6 -2.28992e-6 1 0 4.88243e-7 1 1.20147e-6 2.65338e-6 1 6.11982e-6 -2.52329e-6 1 -3.30958e-6 2.11191e-6 1 -2.57912e-6 0 1 -2.62754e-6 -9.02463e-7 1 0 0 1 1.64564e-7 1.48604e-6 1 0 -8.75889e-7 1 2.31244e-6 2.31592e-6 1 3.7931e-6 1.86165e-6 1 2.45746e-6 3.32142e-6 1 1.06997e-6 -4.11242e-7 1 7.69689e-6 -1.30012e-6 1 -1.25647e-6 1.35739e-6 1 -7.25726e-6 0 1 -8.05159e-6 3.84074e-6 1 -1.17151e-6 -3.49707e-7 1 -2.37718e-6 -1.40233e-6 1 -2.78481e-6</float_array>
          <technique_common>
            <accessor source="#inspection_target-mesh-normals-array" count="596" stride="3">
              <param name="X" type="float"/>
              <param name="Y" type="float"/>
              <param name="Z" type="float"/>
            </accessor>
          </technique_common>
        </source>
        <vertices id="inspection_target-mesh-vertices">
          <input semantic="POSITION" source="#inspection_target-mesh-positions"/>
        </vertices>
        <polylist material="Metal-material" count="614">
          <input semantic="VERTEX" source="#inspection_target-mesh-vertices" offset="0"/>
          <input semantic="NORMAL" source="#inspection_target-mesh-normals" offset="1"/>
          <vcount>3 3 3 3 3 3 3 3 3 3 3 3 3 3 3 3 3 3 3 3 3 3 3 3 3 3 3 3 3 3 3 3 3 3 3 3 3 3 3 3 3 3 3 3 3 3 3 3 3 3 3 3 3 3 3 3 3 3 3 3 3 3 3 3 3 3 3 3 3 3 3 3 3 3 3 3 3 3 3 3 3 3 3 3 3 3 3 3 3 3 3 3 3 3 3 3 3 3 3 3 3 3 3 3 3 3 3 3 3 3 3 3 3 3 3 3 3 3 3 3 3 3 3 3 3 3 3 3 3 3 3 3 3 3 3 3 3 3 3 3 3 3 3 3 3 3 3 3 3 3 3 3 3 3 3 3 3 3 3 3 3 3 3 3 3 3 3 3 3 3 3 3 3 3 3 3 3 3 3 3 3 3 3 3 3 3 3 3 3 3 3 3 3 3 3 3 3 3 3 3 3 3 3 3 3 3 3 3 3 3 3 3 3 3 3 3 3 3 3 3 3 3 3 3 3 3 3 3 3 3 3 3 3 3 3 3 3 3 3 3 3 3 3 3 3 3 3 3 3 3 3 3 3 3 3 3 3 3 3 3 3 3 3 3 3 3 3 3 3 3 3 3 3 3 3 3 3 3 3 3 3 3 3 3 3 3 3 3 3 3 3 3 3 3 3 3 3 3 3 3 3 3 3 3 3 3 3 3 3 3 3 3 3 3 3 3 3 3 3 3 3 3 3 3 3 3 3 3 3 3 3 3 3 3 3 3 3 3 3 3 3 3 3 3 3 3 3 3 3 3 3 3 3 3 3 3 3 3 3 3 3 3 3 3 3 3 3 3 3 3 3 3 3 3 3 3 3 3 3 3 3 3 3 3 3 3 3 3 3 3 3 3 3 3 3 3 3 3 3 3 3 3 3 3 3 3 3 3 3 3 3 3 3 3 3 3 3 3 3 3 3 3 3 3 3 3 3 3 3 3 3 3 3 3 3 3 3 3 3 3 3 3 3 3 3 3 3 3 3 3 3 3 3 3 3 3 3 3 3 3 3 3 3 3 3 3 3 3 3 3 3 3 3 3 3 3 3 3 3 3 3 3 3 3 3 3 3 3 3 3 3 3 3 3 3 3 3 3 3 3 3 3 3 3 3 3 3 3 3 3 3 3 3 3 3 3 3 3 3 3 3 3 3 3 3 3 3 3 3 3 3 3 3 3 3 3 3 3 3 3 3 3 3 3 3 3 3 3 3 3 3 3 3 3 3 3 3 3 3 3 3 3 3 3 3 3 3 3 3 3 3 3 3 3 3 3 3 3 3 3 3 3 3 3 3 3 3 3 3 3 3 3 3 3 3 3 3 3 3 3 3 3 3 3 3 3 3 3 3 3 3 3 3 3 </vcount>
          <p>2 0 0 0 3 0 0 1 1 1 3 1 4 2 5 2 6 2 7 3 4 3 6 3 7 4 6 4 8 4 9 5 7 5 8 5 9 6 8 6 10 6 11 7 9 7 10 7 11 8 10 8 12 8 13 9 11 9 14 9 11 10 12 10 14 10 15 11 13 11 16 11 13 12 14 12 16 12 15 13 16 13 17 13 18 14 15 14 17 14 18 15 17 15 19 15 20 16 18 16 19 16 20 17 19 17 1 17 0 18 20 18 1 18 21 19 22 19 23 19 24 20 21 20 23 20 24 21 23 21 25 21 26 22 24 22 25 22 26 23 25 23 27 23 28 24 26 24 27 24 28 25 27 25 29 25 30 26 28 26 29 26 30 27 29 27 31 27 32 28 30 28 31 28 32 29 31 29 33 29 34 30 32 30 33 30 34 31 33 31 35 31 36 32 34 32 35 32 36 33 35 33 37 33 38 34 36 34 37 34 38 35 37 35 39 35 40 36 38 36 39 36 41 37 39 37 42 37 41 38 40 38 39 38 43 39 44 39 45 39 43 40 46 40 44 40 43 41 45 41 22 41 21 42 43 42 22 42 47 43 42 43 48 43 47 44 41 44 42 44 49 45 48 45 50 45 49 46 47 46 48 46 51 47 50 47 52 47 51 48 49 48 50 48 53 49 52 49 54 49 53 50 51 50 52 50 55 51 54 51 56 51 55 52 53 52 54 52 57 53 55 53 56 53 57 54 56 54 58 54 59 55 57 55 58 55 59 56 58 56 60 56 46 57 60 57 44 57 46 58 59 58 60 58 61 59 2 59 3 59 62 60 61 60 63 60 61 61 3 61 63 61 64 62 62 62 65 62 62 63 63 63 65 63 66 64 64 64 67 64 64 65 65 65 67 65 68 66 66 66 67 66 68 67 67 67 69 67 70 68 68 68 69 68 70 69 69 69 71 69 72 70 70 70 71 70 72 71 71 71 73 71 74 72 72 72 73 72 74 73 73 73 75 73 76 74 74 74 75 74 76 75 75 75 77 75 4 76 76 76 77 76 4 77 77 77 5 77 37 78 76 78 39 78 45 79 0 79 2 79 74 80 76 80 37 80 15 81 56 81 13 81 66 82 68 82 31 82 58 83 56 83 15 83 22 84 45 84 2 84 35 85 74 85 37 85 9 86 52 86 50 86 7 87 50 87 48 87 7 88 9 88 50 88 29 89 66 89 31 89 72 90 74 90 35 90 18 91 58 91 15 91 60 92 58 92 18 92 11 93 52 93 9 93 11 94 54 94 52 94 4 95 7 95 48 95 4 96 48 96 42 96 33 97 72 97 35 97 29 98 64 98 66 98 70 99 72 99 33 99 20 100 60 100 18 100 22 101 2 101 61 101 4 102 42 102 39 102 44 103 60 103 20 103 23 104 22 104 61 104 27 105 64 105 29 105 56 106 54 106 11 106 23 107 61 107 62 107 27 108 62 108 64 108 25 109 23 109 62 109 31 110 70 110 33 110 13 111 56 111 11 111 25 112 62 112 27 112 0 113 44 113 20 113 76 114 4 114 39 114 68 115 70 115 31 115 45 116 44 116 0 116 8 117 47 117 49 117 8 118 6 118 47 118 24 119 63 119 3 119 67 120 30 120 32 120 67 121 32 121 69 121 55 122 16 122 14 122 75 123 36 123 38 123 77 124 75 124 38 124 77 125 38 125 40 125 73 126 36 126 75 126 21 127 24 127 3 127 51 128 8 128 49 128 51 129 10 129 8 129 67 119 28 119 30 119 57 130 16 130 55 130 73 131 34 131 36 131 5 132 40 132 41 132 5 133 77 133 40 133 71 134 34 134 73 134 65 135 28 135 67 135 53 136 10 136 51 136 53 137 12 137 10 137 43 138 21 138 3 138 26 139 28 139 65 139 57 140 17 140 16 140 71 141 32 141 34 141 43 142 3 142 1 142 59 143 17 143 57 143 6 144 41 144 47 144 63 145 26 145 65 145 6 146 5 146 41 146 59 147 19 147 17 147 69 148 32 148 71 148 46 149 1 149 19 149 46 150 43 150 1 150 55 151 14 151 12 151 46 152 19 152 59 152 55 153 12 153 53 153 24 154 26 154 63 154 78 155 79 155 80 155 78 156 81 156 79 156 82 155 79 155 81 155 83 155 82 155 81 155 84 155 78 155 80 155 85 157 83 157 84 157 85 155 84 155 80 155 85 158 82 158 83 158 86 159 87 159 88 159 88 160 87 160 89 160 87 161 86 161 90 161 87 162 90 162 91 162 89 159 92 159 93 159 92 163 91 163 93 163 91 159 90 159 93 159 88 159 89 159 93 159 88 164 93 164 80 164 93 165 85 165 80 165 93 166 90 166 85 166 90 167 82 167 85 167 86 168 79 168 90 168 79 169 82 169 90 169 86 170 88 170 79 170 88 171 80 171 79 171 84 172 92 172 89 172 78 173 84 173 89 173 84 174 91 174 92 174 84 175 83 175 91 175 87 176 83 176 81 176 91 177 83 177 87 177 81 178 89 178 87 178 81 179 78 179 89 179 94 180 95 180 96 180 97 181 95 181 94 181 98 182 99 182 96 182 98 183 96 183 95 183 100 184 99 184 98 184 101 185 100 185 97 185 101 155 97 155 94 155 101 155 99 155 100 155 102 159 103 159 104 159 103 186 105 186 104 186 105 187 103 187 106 187 105 188 106 188 107 188 102 189 104 189 108 189 108 190 107 190 109 190 102 159 108 159 109 159 107 159 106 159 109 159 102 191 109 191 101 191 94 192 102 192 101 192 109 193 106 193 101 193 106 194 99 194 101 194 106 195 103 195 99 195 103 195 96 195 99 195 103 175 102 175 96 175 102 175 94 175 96 175 97 196 108 196 104 196 100 197 108 197 97 197 100 198 107 198 108 198 100 199 98 199 107 199 95 200 105 200 107 200 98 201 95 201 107 201 95 202 104 202 105 202 95 203 97 203 104 203 113 204 112 204 117 204 118 205 113 205 117 205 115 206 116 206 119 206 120 207 114 207 111 207 121 208 115 208 119 208 120 209 111 209 122 209 118 210 117 210 123 210 128 211 120 211 122 211 124 212 121 212 119 212 125 213 118 213 126 213 118 214 123 214 126 214 128 215 122 215 127 215 124 216 119 216 129 216 132 217 128 217 127 217 124 218 129 218 130 218 132 219 127 219 131 219 133 220 124 220 130 220 134 221 132 221 131 221 133 222 130 222 135 222 110 223 133 223 135 223 134 224 131 224 112 224 113 225 134 225 112 225 110 226 135 226 111 226 114 227 110 227 111 227 136 228 137 228 140 228 141 229 191 229 142 229 143 230 138 230 139 230 144 231 136 231 140 231 143 232 139 232 145 232 144 233 140 233 146 233 147 234 143 234 145 234 141 235 142 235 148 235 149 236 144 236 146 236 147 237 145 237 150 237 149 238 146 238 151 238 152 239 141 239 148 239 153 240 147 240 150 240 154 241 149 241 151 241 154 242 151 242 155 242 152 243 148 243 156 243 153 244 150 244 157 244 158 245 152 245 156 245 159 246 153 246 157 246 160 247 156 247 161 247 160 248 158 248 156 248 159 249 157 249 137 249 160 250 161 250 139 250 136 251 159 251 137 251 138 252 160 252 139 252 163 253 121 253 124 253 164 254 110 254 162 254 165 255 163 255 124 255 166 256 110 256 164 256 166 257 133 257 110 257 165 258 124 258 133 258 167 259 161 259 156 259 166 260 165 260 133 260 168 261 161 261 167 261 169 262 167 262 156 262 168 263 139 263 161 263 169 264 156 264 148 264 170 265 139 265 168 265 171 266 169 266 148 266 172 267 139 267 170 267 172 268 145 268 139 268 171 269 148 269 142 269 125 270 171 270 142 270 172 271 150 271 145 271 125 272 142 272 173 272 174 273 150 273 172 273 118 274 125 274 173 274 175 275 118 275 173 275 157 276 150 276 174 276 176 277 157 277 174 277 177 278 118 278 175 278 113 279 118 279 177 279 137 280 157 280 176 280 178 281 137 281 176 281 179 282 113 282 177 282 134 283 113 283 179 283 140 284 137 284 178 284 180 285 140 285 178 285 132 286 134 286 179 286 181 287 132 287 179 287 146 288 140 288 180 288 182 289 146 289 180 289 183 290 132 290 181 290 128 291 132 291 183 291 151 292 146 292 182 292 151 293 182 293 115 293 184 294 120 294 128 294 184 295 128 295 183 295 155 296 151 296 115 296 155 297 115 297 121 297 184 298 114 298 120 298 163 299 155 299 121 299 162 300 114 300 184 300 162 301 110 301 114 301 186 302 164 302 162 302 187 303 186 303 162 303 188 304 185 304 177 304 189 305 154 305 155 305 187 306 162 306 184 306 189 307 155 307 163 307 190 308 187 308 184 308 188 309 177 309 175 309 191 310 188 310 175 310 190 311 184 311 183 311 191 312 175 312 173 312 192 313 189 313 163 313 193 314 190 314 183 314 191 315 173 315 142 315 192 316 163 316 165 316 193 317 183 317 181 317 194 318 165 318 166 318 194 319 192 319 165 319 195 320 193 320 181 320 195 321 181 321 179 321 194 322 166 322 164 322 186 323 194 323 164 323 185 324 179 324 177 324 185 325 195 325 179 325 170 326 168 326 196 326 180 327 178 327 197 327 170 328 196 328 198 328 180 329 197 329 199 329 172 330 170 330 198 330 182 331 180 331 199 331 125 332 126 332 200 332 171 333 125 333 200 333 172 334 198 334 201 334 182 335 199 335 116 335 171 336 200 336 202 336 115 337 182 337 116 337 174 338 172 338 201 338 169 339 171 339 202 339 174 340 201 340 203 340 169 341 202 341 204 341 176 342 174 342 203 342 167 343 169 343 204 343 176 344 203 344 205 344 167 345 204 345 206 345 168 346 167 346 206 346 178 347 176 347 205 347 178 348 205 348 197 348 168 349 206 349 196 349 187 350 111 350 186 350 119 351 189 351 192 351 129 119 119 119 192 119 111 352 135 352 186 352 186 353 135 353 194 353 130 354 129 354 192 354 135 355 130 355 194 355 130 356 192 356 194 356 158 357 160 357 204 357 204 358 160 358 206 358 152 359 158 359 204 359 206 360 160 360 196 360 152 361 204 361 202 361 160 362 138 362 196 362 152 363 202 363 200 363 141 364 152 364 200 364 196 365 138 365 198 365 138 366 143 366 198 366 143 367 147 367 198 367 141 368 200 368 126 368 198 369 147 369 201 369 191 370 141 370 126 370 147 371 153 371 201 371 191 372 126 372 123 372 201 373 153 373 203 373 191 374 123 374 117 374 191 375 117 375 188 375 203 376 153 376 159 376 188 377 117 377 112 377 203 378 159 378 205 378 188 379 112 379 185 379 205 380 159 380 197 380 197 381 159 381 136 381 185 382 112 382 195 382 195 383 112 383 131 383 197 384 136 384 144 384 197 385 144 385 199 385 195 386 131 386 193 386 193 387 131 387 127 387 199 388 144 388 149 388 199 389 149 389 116 389 116 390 149 390 154 390 127 391 122 391 193 391 193 392 122 392 190 392 119 393 116 393 154 393 119 394 154 394 189 394 122 395 111 395 187 395 190 396 122 396 187 396 210 397 209 397 212 397 213 398 280 398 214 398 215 399 210 399 212 399 216 400 211 400 208 400 216 401 208 401 217 401 213 402 214 402 218 402 215 403 212 403 219 403 223 404 216 404 217 404 220 405 213 405 218 405 221 406 215 406 219 406 223 407 217 407 222 407 223 408 222 408 224 408 226 409 223 409 224 409 220 410 218 410 225 410 227 411 220 411 225 411 228 412 226 412 224 412 228 413 224 413 229 413 227 414 225 414 230 414 207 415 227 415 230 415 210 416 228 416 229 416 207 417 230 417 208 417 210 418 229 418 209 418 211 419 207 419 208 419 235 420 232 420 236 420 235 421 231 421 232 421 233 422 234 422 237 422 238 423 291 423 239 423 240 424 233 424 237 424 241 425 236 425 242 425 241 426 235 426 236 426 240 427 237 427 243 427 238 428 239 428 244 428 241 429 242 429 245 429 246 430 240 430 243 430 247 431 238 431 244 431 246 432 243 432 248 432 249 433 241 433 245 433 249 434 245 434 250 434 251 435 246 435 248 435 247 436 244 436 252 436 253 437 247 437 252 437 254 438 248 438 255 438 254 439 251 439 248 439 253 440 252 440 256 440 257 441 253 441 256 441 231 442 254 442 255 442 231 443 255 443 232 443 257 444 256 444 234 444 233 445 257 445 234 445 258 446 211 446 282 446 260 81 259 81 220 81 261 447 207 447 258 447 261 448 227 448 207 448 260 449 220 449 227 449 262 450 256 450 252 450 261 451 260 451 227 451 263 452 256 452 262 452 264 453 262 453 252 453 263 454 234 454 256 454 264 455 252 455 244 455 265 456 234 456 263 456 266 457 264 457 244 457 265 458 237 458 234 458 266 459 244 459 239 459 267 460 237 460 265 460 221 461 266 461 239 461 267 462 243 462 237 462 221 463 239 463 268 463 269 464 243 464 267 464 269 465 248 465 243 465 215 466 221 466 268 466 270 467 215 467 268 467 271 468 248 468 269 468 255 469 248 469 271 469 272 470 215 470 270 470 210 471 215 471 272 471 273 472 255 472 271 472 232 473 255 473 273 473 274 474 232 474 273 474 275 475 210 475 272 475 228 476 210 476 275 476 236 477 232 477 274 477 276 478 236 478 274 478 226 479 228 479 275 479 277 480 226 480 275 480 242 481 236 481 276 481 278 482 242 482 276 482 279 483 226 483 277 483 223 484 226 484 279 484 280 485 242 485 278 485 245 486 242 486 280 486 281 487 216 487 223 487 281 488 223 488 279 488 250 489 245 489 280 489 250 490 280 490 213 490 282 491 216 491 281 491 282 492 211 492 216 492 259 493 250 493 213 493 259 494 213 494 220 494 258 495 207 495 211 495 284 496 258 496 282 496 285 497 283 497 272 497 286 498 284 498 282 498 287 499 249 499 250 499 285 500 272 500 270 500 286 501 282 501 281 501 288 502 285 502 270 502 287 503 250 503 259 503 286 504 281 504 279 504 288 505 270 505 268 505 289 506 287 506 259 506 290 507 286 507 279 507 291 508 288 508 268 508 291 509 268 509 239 509 289 510 259 510 260 510 292 511 289 511 260 511 290 512 279 512 277 512 292 513 260 513 261 513 293 514 290 514 277 514 293 515 277 515 275 515 294 516 261 516 258 516 294 517 292 517 261 517 283 518 275 518 272 518 283 519 293 519 275 519 284 520 294 520 258 520 265 521 263 521 295 521 276 522 274 522 296 522 265 523 295 523 297 523 276 524 296 524 298 524 221 525 219 525 299 525 278 526 276 526 298 526 266 527 221 527 299 527 267 528 265 528 297 528 278 529 298 529 300 529 269 530 267 530 301 530 267 531 297 531 301 531 280 532 278 532 300 532 266 533 299 533 302 533 264 534 266 534 302 534 280 535 300 535 214 535 269 536 301 536 303 536 271 537 269 537 303 537 264 538 302 538 304 538 262 539 264 539 304 539 271 540 303 540 305 540 273 541 271 541 305 541 262 542 304 542 306 542 263 543 262 543 306 543 274 544 273 544 305 544 263 545 306 545 295 545 274 546 305 546 296 546 218 547 287 547 289 547 284 548 208 548 294 548 208 549 230 549 294 549 225 550 218 550 289 550 225 551 289 551 292 551 230 552 225 552 292 552 294 553 230 553 292 553 253 554 257 554 304 554 304 555 257 555 306 555 247 556 253 556 304 556 306 557 257 557 295 557 247 558 304 558 302 558 257 559 233 559 295 559 247 560 302 560 299 560 238 561 247 561 299 561 295 562 233 562 297 562 233 563 240 563 297 563 240 564 246 564 301 564 297 565 240 565 301 565 238 566 299 566 219 566 291 567 238 567 219 567 301 568 246 568 251 568 291 569 219 569 288 569 301 570 251 570 303 570 288 571 219 571 212 571 288 572 212 572 285 572 303 573 251 573 254 573 303 574 254 574 305 574 305 575 254 575 231 575 285 576 212 576 209 576 285 577 209 577 283 577 283 578 209 578 229 578 305 579 231 579 296 579 283 580 229 580 293 580 296 581 231 581 235 581 293 582 229 582 224 582 296 583 235 583 298 583 298 584 235 584 241 584 293 585 224 585 290 585 298 586 241 586 300 586 290 587 224 587 222 587 300 588 241 588 249 588 222 589 217 589 290 589 214 590 300 590 249 590 290 591 217 591 286 591 217 592 208 592 286 592 218 593 214 593 287 593 214 594 249 594 287 594 286 595 208 595 284 595</p>
        </polylist>
      </mesh>
    </geometry>
  </library_geometries>
  <library_visual_scenes>
    <visual_scene id="Scene" name="Scene">
      <node id="inspection_target" name="inspection_target" type="NODE">
        <matrix sid="transform">8.66025e-4 -5e-4 0 0.5966821 5e-4 8.66025e-4 0 -0.0886654 0 0 0.001 -0.3979715 0 0 0 1</matrix>
        <instance_geometry url="#inspection_target-mesh" name="inspection_target">
          <bind_material>
            <technique_common>
              <instance_material symbol="Metal-material" target="#Metal-material"/>
            </technique_common>
          </bind_material>
        </instance_geometry>
      </node>
    </visual_scene>
  </library_visual_scenes>
  <scene>
    <instance_visual_scene url="#Scene"/>
  </scene>
</COLLADA>